Wrangling Crime Data with R • compstatr
…
Read Tables Directly into R

As of version v0.2.0, data tables can be scraped and read directly into R without manually downloading them first. They are read from the St. Louis Metropolitan Police Department’s website and imported directly as objects in R’s global environment. To identify the last available month:

> cs_last_update()
[1] "May 2019"

To enable scraping, an index of the available data needs to be created. Doing this is optional but highly recommended to improve performance:

> # create index
> i <- cs_create_index()
>
> # preview index
> i
# A tibble: 137 x 6
    page row   value  year month date          
   <int> <chr> <chr> <dbl> <int> <chr>         
 1     1 02    1 02   2019     5 May 2019      
 2     1 03    1 03   2019     4 April 2019    
 3     1 04    1 04   2019     3 March 2019    
 4     1 05    1 05   2019     2 February 2019 
 5     1 06    1 06   2019     1 January 2019  
 6     1 07    1 07   2018    12 December 2018 
 7     1 08    1 08   2018    11 November 2018 
 8     1 09    1 09   2018    10 October 2018  
 9     1 10    1 10   2018     9 September 2018
10     1 11    1 11   2018     8 August 2018   
# … with 127 more rows
…
